<?xml version="1.0" encoding="utf-8"?>
<svg xmlns="http://www.w3.org/2000/svg" viewBox="0 0 500 500">
    <g id="Capa_17" data-name="Capa 17">
        <path class="cls-1" d="M129.09,476.7a12.67,12.67,0,0,1-4.6-.85,12.89,12.89,0,0,1-8.2-12v-62H81a6,6,0,0,1,0-12h41.29a6,6,0,0,1,6,6v68a.82.82,0,0,0,.51.75.84.84,0,0,0,.89-.21l66-72.61a6,6,0,0,1,4.42-2l113.08-.46a34.37,34.37,0,0,0,34.36-34.33V211.28A34.38,34.38,0,0,0,313.2,177L81,177.42a34.37,34.37,0,0,0-34.35,34.34V363.09a6,6,0,0,1-12,0V211.76A46.39,46.39,0,0,1,81,165.42L313.19,165a46.39,46.39,0,0,1,46.36,46.33v143.8a46.38,46.38,0,0,1-46.33,46.33l-110.43.45-64.22,70.65A12.83,12.83,0,0,1,129.09,476.7Z"/>
        <path class="cls-1" d="M415.77,379.41a12.82,12.82,0,0,1-9.47-4.18l-22.18-24.39a6,6,0,0,1-1.56-4v-158a48,48,0,0,0-48-47.94l-177.27.36a6,6,0,0,1-6-6V114a46.38,46.38,0,0,1,46.33-46.33l232.25.48a46.37,46.37,0,0,1,46.3,46.33V258.27a46.38,46.38,0,0,1-46.33,46.32h-1.28v62a12.77,12.77,0,0,1-12.8,12.8Zm-21.21-34.93,20.62,22.67a.8.8,0,0,0,1.39-.54v-68a6,6,0,0,1,6-6h7.28a34.37,34.37,0,0,0,34.33-34.32V114.46a34.36,34.36,0,0,0-34.32-34.33h0l-232.23-.48A34.37,34.37,0,0,0,163.3,114v15.24l171.27-.35a60,60,0,0,1,60,59.94Z"/>
        <path class="cls-1" d="M293.67,252.57H100.29a6,6,0,0,1,0-12H293.67a6,6,0,0,1,0,12Z"/>
        <path class="cls-1" d="M224,296.7H100.29a6,6,0,0,1,0-12H224a6,6,0,1,1,0,12Z"/>
    </g>
</svg>
