<?xml version="1.0" encoding="utf-8"?>
<svg xmlns="http://www.w3.org/2000/svg" viewBox="0 0 500 500">
    <g id="Capa_17" data-name="Capa 17">
        <path class="cls-1" d="M136.43,334a61.74,61.74,0,1,1,61.74-61.74A61.8,61.8,0,0,1,136.43,334Zm0-111.48a49.74,49.74,0,1,0,49.74,49.74A49.79,49.79,0,0,0,136.43,222.53Z"/>
        <path class="cls-1" d="M324.56,187.69a57.1,57.1,0,1,1,57.1-57.1A57.16,57.16,0,0,1,324.56,187.69Zm0-102.19a45.1,45.1,0,1,0,45.1,45.09A45.15,45.15,0,0,0,324.56,85.5Z"/>
        <path class="cls-1" d="M324.56,452.47a64.07,64.07,0,1,1,64.06-64.07A64.14,64.14,0,0,1,324.56,452.47Zm0-116.13a52.07,52.07,0,1,0,52.06,52.06A52.12,52.12,0,0,0,324.56,336.34Z"/>
        <path class="cls-1" d="M180.56,236.47a6,6,0,0,1-3.73-10.7l90.58-72a6,6,0,1,1,7.46,9.39l-90.58,72A6,6,0,0,1,180.56,236.47Z"/>
        <path class="cls-1" d="M266.49,366.53a5.94,5.94,0,0,1-3.44-1.09l-61.93-43.35a6,6,0,1,1,6.88-9.83l61.93,43.35a6,6,0,0,1-3.44,10.92Z"/>
    </g>
</svg>
